^C:\USERS\MAZDOG\SOURCE\REPOS\MATRIX\MATRIX\MATRIX.CPP
/c /ZI /JMC /nologo /W3 /WX- /diagnostics:column /sdl /Od /Oy- /D WIN32 /D _DEBUG /D _CONSOLE /D _UNICODE /D UNICODE /Gm- /EHsc /RTC1 /MDd /GS /fp:precise /permissive- /Zc:wchar_t /Zc:forScope /Zc:inline /Fo"DEBUG\\" /Fd"DEBUG\VC142.PDB" /external:W3 /Gd /TP /analyze- /FC C:\USERS\MAZDOG\SOURCE\REPOS\MATRIX\MATRIX\MATRIX.CPP
^C:\USERS\MAZDOG\SOURCE\REPOS\MATRIX\MATRIX\MAIN.CPP
/c /ZI /JMC /nologo /W3 /WX- /diagnostics:column /sdl /Od /Oy- /D WIN32 /D _DEBUG /D _CONSOLE /D _UNICODE /D UNICODE /Gm- /EHsc /RTC1 /MDd /GS /fp:precise /permissive- /Zc:wchar_t /Zc:forScope /Zc:inline /Fo"DEBUG\\" /Fd"DEBUG\VC142.PDB" /external:W3 /Gd /TP /analyze- /FC C:\USERS\MAZDOG\SOURCE\REPOS\MATRIX\MATRIX\MAIN.CPP
