^C:\USERS\MAZDOG\SOURCE\REPOS\MATRIX\MATRIX\MAIN.CPP|C:\USERS\MAZDOG\SOURCE\REPOS\MATRIX\MATRIX\MATRIX.CPP
C:\USERS\MAZDOG\SOURCE\REPOS\MATRIX\MATRIX\DEBUG\VC142.PDB
C:\USERS\MAZDOG\SOURCE\REPOS\MATRIX\MATRIX\DEBUG\VC142.IDB
C:\USERS\MAZDOG\SOURCE\REPOS\MATRIX\MATRIX\DEBUG\MATRIX.OBJ
C:\USERS\MAZDOG\SOURCE\REPOS\MATRIX\MATRIX\DEBUG\MAIN.OBJ
^C:\USERS\MAZDOG\SOURCE\REPOS\MATRIX\MATRIX\MATRIX.CPP
C:\USERS\MAZDOG\SOURCE\REPOS\MATRIX\MATRIX\DEBUG\VC142.PDB
^C:\USERS\MAZDOG\SOURCE\REPOS\MATRIX\MATRIX\MAIN.CPP
C:\USERS\MAZDOG\SOURCE\REPOS\MATRIX\MATRIX\DEBUG\VC142.PDB
C:\USERS\MAZDOG\SOURCE\REPOS\MATRIX\MATRIX\DEBUG\VC142.IDB
C:\USERS\MAZDOG\SOURCE\REPOS\MATRIX\MATRIX\DEBUG\MAIN.OBJ
